module bitbucket.org/hapidznur/golang

go 1.15

require (
	github.com/badoux/checkmail v1.2.1
	github.com/dgrijalva/jwt-go v3.2.0+incompatible
	github.com/gorilla/mux v1.8.0
	github.com/jinzhu/gorm v1.9.16
	github.com/joho/godotenv v1.3.0
	github.com/nfnt/resize v0.0.0-20180221191011-83c6a9932646
	golang.org/x/crypto v0.0.0-20201221181555-eec23a3978ad
	gopkg.in/go-playground/assert.v1 v1.2.1 // indirect
)
